@startuml

Subject --* Reservation
Reservation *-- Room
Reservation *-- User
RoomSwap *-- Reservation
ObservableRoom *-- User
ObservableRoom *-- Room
Event *-- User


class User {
ID : Integer
Name : String
Surname : String
Email : String
IsTeacher : Boolean
IsAdmin : Boolean
}

class Subject {
ID : Integer
Name : String
Teacher : String
}

class Room {
ID : Integer
Name : String
numberOfSeats : Integer
floor: Integer
}

class Reservation {
ID : Integer
user : User
room : Room
date : Date
subject : Subject
description : String
}


class RoomSwap {
 ID : Integer
 reservationProposing : Reservation;
 reservationWanting : Reservation;
}

class ObservableRoom {
 ID : Integer
 room : Room
 user : User
 date : Date
}

class Event {
 ID : Integer
 user : User
 date : Date
 header : String
 description : String
}

@enduml